{
"current_page": 1,
"data": [
{
"breed": "Abyssinian",
"country": "Ethiopia",
"origin": "Natural/Standard",
"coat": "Short",
"pattern": "Ticked"
}
],
"first_page_url": "https://catfact.ninja/breeds?page=1",
"from": 1,
"last_page": 4,
"last_page_url": "https://catfact.ninja/breeds?page=4",
"links": [
{
"url": null,
"label": "pagination.previous",
"active": false
},
{
"url": "https://catfact.ninja/breeds?page=1",
"label": "1",
"active": true
},
{
"url": "https://catfact.ninja/breeds?page=2",
"label": "2",
"active": false
},
{
"url": "https://catfact.ninja/breeds?page=3",
"label": "3",
"active": false
},
{
"url": "https://catfact.ninja/breeds?page=4",
"label": "4",
"active": false
},
{
"url": "https://catfact.ninja/breeds?page=2",
"label": "pagination.next",
"active": false
}
],
"next_page_url": "https://catfact.ninja/breeds?page=2",
"path": "https://catfact.ninja/breeds",
"per_page": 25,
"prev_page_url": null,
"to": 25,
"total": 98
}
